{
  "addForm" : [
    {
      "kind": "control",
      "type": "text",
      "name": "first_name",
      "label": "First Name",
      "validators": null,
      "isRequired": true
    },
    {
      "kind": "control",
      "type": "text",
      "name": "last_name",
      "label": "Last Name",
      "validators": null,
      "isRequired": true
    },
    {
      "kind": "control",
      "type": "text",
      "name": "age",
      "label": "Age",
      "validators": [{
        "adult": 18
      }],
      "isRequired": true
    },
    {
      "kind": "group",
      "label": "Address",
      "name": "address",
      "controls": [
        {
          "kind": "control",
          "type": "text",
          "name": "city",
          "label": "city",
          "isRequired": true
        },
        {
          "kind": "control",
          "type": "text",
          "name": "street",
          "label": "street",
          "isRequired": true
        },
        {
          "kind": "control",
          "type": "text",
          "name": "zip",
          "label": "ZIP Code",
          "isRequired": false
        },
        {
          "kind": "group",
          "label": "Contacts",
          "name": "contacts",
          "controls": [
            {
              "kind": "control",
              "type": "text",
              "name": "phone",
              "label": "Phone",
              "isRequired": false
            },
            {
              "kind": "control",
              "type": "text",
              "name": "email",
              "label": "Email",
              "isRequired": true
            }
          ]
        }
      ]
    }
  ]
}
